Lecture 3: Piping & Grouped Comparisons
…
We will focus on pitching statistics today. To load the pitching data into R from the Lahman package, we have to use the data() function. We also will need to convert the data into a tibble.

> Pitching <- as_tibble(Pitching)

There are tons of rows and columns in the dataset. For this exercise, we will only want to focus on ERA and also focus only on those pitchers who have pitched at least 150 innings. Unfortuntaely, the Lahman pitching dataset does not contain the number of innings pitched (IP). Instead, it has a column called ``IPouts’’, which is the number of outs pitched and whose formula is \(\text{IPOuts} = 3 \times \text{IP}.\)

Using the pipe and the dplyr verbs we learned in Lecture 2, we will create a new tibble called pitching which contains all players who pitched at least 150 innings, played in either the AL or the NL and which contains only the columns corresponding the player, year, team, league, innings pitched, and ERA.

> pitching <- 
+   Pitching %>%
+   mutate(IP = IPouts/3) %>% 
+   filter(lgID %in% c('AL', 'NL') & IP >= 150) %>%
+   select(playerID, yearID, teamID, lgID, IP, ERA)
> pitching
# A tibble: 9,318 x 6
   playerID  yearID teamID lgID     IP   ERA
   <chr>      <int> <fct>  <fct> <dbl> <dbl>
 1 bondto01    1876 HAR    NL     408   1.68
 2 bordejo01   1876 BSN    NL     218.  2.89
 3 bradlfo01   1876 BSN    NL     173.  2.49
 4 bradlge01   1876 SL3    NL     573   1.23
 5 cummica01   1876 HAR    NL     216   1.67
 6 deando01    1876 CN1    NL     263.  3.73
 7 devliji01   1876 LS1    NL     622   1.56
 8 fishech01   1876 CN1    NL     229.  3.02
 9 knighlo01   1876 PHN    NL     282   2.62
10 mannija01   1876 BSN    NL     197.  2.14
# … with 9,308 more rows
…
Looking at the plot, it appears that some of the pitchers from the first few decades of baseball had the lowest ERA. Using arrange(), we can see which pitcher had the best season according to ERA.

> arrange(pitching, ERA)
# A tibble: 9,318 x 6
   playerID  yearID teamID lgID     IP   ERA
   <chr>      <int> <fct>  <fct> <dbl> <dbl>
 1 leonadu01   1914 BOS    AL     225.  0.96
 2 brownmo01   1906 CHN    NL     277.  1.04
 3 gibsobo01   1968 SLN    NL     305.  1.12
 4 mathech01   1909 NY1    NL     275.  1.14
 5 johnswa01   1913 WS1    AL     346   1.14
 6 pfiesja01   1907 CHN    NL     195   1.15
 7 jossad01    1908 CLE    AL     325   1.16
 8 lundgca01   1907 CHN    NL     207   1.17
 9 alexape01   1915 PHI    NL     376.  1.22
10 bradlge01   1876 SL3    NL     573   1.23
# … with 9,308 more rows
…
To answer this, we can transform ERA to standardized units using the mutate() function. There is a minor complication: there is not a built-in function for standardizing a variable in R! Luckily for us, R allows us to define our own functions like so:

> standardize <- function(x){
+   mu <- mean(x, na.rm = TRUE)
+   sigma <- sd(x, na.rm = TRUE)
+   return( (x - mu)/sigma )
+ }

For now, don’t worry too much about the syntax or the na.rm = TRUE bits. We will discuss them in more depth later. Armed with our standardize() function, we can add a column called zERA_all which transforms ERA to the standardized scale.

> pitching <-
+   pitching %>%
+   mutate(zERA_all = standardize(ERA))
> pitching %>% arrange(zERA_all)
# A tibble: 9,318 x 7
   playerID  yearID teamID lgID     IP   ERA zERA_all
   <chr>      <int> <fct>  <fct> <dbl> <dbl>    <dbl>
 1 leonadu01   1914 BOS    AL     225.  0.96    -3.00
 2 brownmo01   1906 CHN    NL     277.  1.04    -2.91
 3 gibsobo01   1968 SLN    NL     305.  1.12    -2.82
 4 mathech01   1909 NY1    NL     275.  1.14    -2.80
 5 johnswa01   1913 WS1    AL     346   1.14    -2.80
 6 pfiesja01   1907 CHN    NL     195   1.15    -2.79
 7 jossad01    1908 CLE    AL     325   1.16    -2.78
 8 lundgca01   1907 CHN    NL     207   1.17    -2.76
 9 alexape01   1915 PHI    NL     376.  1.22    -2.71
10 bradlge01   1876 SL3    NL     573   1.23    -2.70
# … with 9,308 more rows
…
When we print out pitching now, we notice an extra line that tells us the grouping variable. Now when we pass this tibble on to subsequent calculations, these calculations will be done on each group. Recall from earlier that the code pitching %>% summarize(mean = mean(ERA)) returned a single row containing the average of ERA over all players and year. If we now run the same code again, we actually get a tibble with one row per year that lists the mean and standard deviation of ERA within each year. We will save this tibble as pitching_summary:

> pitching_summary <- 
+   pitching %>% 
+   summarize(mean = mean(ERA), sd = sd(ERA))

In Lecture 2, we listed a few useful functions to be used within summarize(). One of them, n(), returns counts and is especially useful when used on a grouped tibble. We can, for instance, count the number of pitchers in our dataset within each year using n().

> pitching %>% 
+   summarize(count = n()) %>%
+   arrange(count)
# A tibble: 141 x 2
   yearID count
    <int> <int>
 1   1877     7
 2   1878     7
 3   1880    12
 4   1876    13
 5   1879    13
 6   1883    13
 7   1881    14
 8   1882    14
 9   1884    19
10   1885    19
# … with 131 more rows

Exercise: Describe, in words, what the following code does.

> pitching %>% 
+   summarize(count = n()) %>%
+   filter(count >= 90) %>%
+   arrange(desc(count))

Once we add a grouping to our tibble, it also changes the way mutate() operates on the tibble. We can now standardize each pitcher’s ERA within each year and save that result in a column called zERA_year.

> pitching <-
+   pitching %>%
+   mutate(zERA_year = standardize(ERA))
> pitching %>% arrange(zERA_year)
# A tibble: 9,318 x 8
# Groups:   yearID [141]
   playerID  yearID teamID lgID     IP   ERA zERA_all zERA_year
   <chr>      <int> <fct>  <fct> <dbl> <dbl>    <dbl>     <dbl>
 1 leonadu01   1914 BOS    AL     225.  0.96    -3.00     -3.48
 2 martipe02   2000 BOS    AL     217   1.74    -2.12     -3.16
 3 maddugr01   1995 ATL    NL     210.  1.63    -2.24     -3.02
 4 luquedo01   1923 CIN    NL     322   1.93    -1.90     -2.88
 5 martipe02   1999 BOS    AL     213.  2.07    -1.74     -2.85
 6 brownke01   1996 FLO    NL     233   1.89    -1.95     -2.82
 7 eichhma01   1986 TOR    AL     157   1.72    -2.14     -2.81
 8 maddugr01   1994 ATL    NL     202   1.56    -2.32     -2.79
 9 piercbi02   1955 CHA    AL     206.  1.97    -1.86     -2.77
10 hubbeca01   1933 NY1    NL     309.  1.66    -2.21     -2.77
# … with 9,308 more rows
…
