Lecture 4: Tidy Data & Regression Introduction
…
Hide All Code

Lecture 4: Tidy Data & Regression Introduction

Tidy Data

Before we jump into any analysis, we wanted to start by discussing the notion of “tidy data”. 

To make the above discussion much more concrete, let’s go back to the dataset we created in the challenge question at the end of Problem Set 3. Each line of this tbl is a “player-season”. Printing out the tbl, we see that there is a separate row for each “player-season”.

> library(tidyverse)
> load("data/batting_2014_2015.RData")
> batting_2014_2015
# A tibble: 140 x 3
# Groups:   playerID [70]
   playerID  yearID    BA
   <chr>      <int> <dbl>
 1 abreujo02   2014 0.317
 2 abreujo02   2015 0.290
 3 altuvjo01   2014 0.341
 4 altuvjo01   2015 0.313
 5 andruel01   2014 0.263
 6 andruel01   2015 0.258
 7 aybarer01   2014 0.278
 8 aybarer01   2015 0.270
 9 bautijo02   2014 0.286
10 bautijo02   2015 0.250
# … with 130 more rows

In order to study the relationship between a player’s 2014 batting average and his 2015 batting average, it will be more convenient to store the data as below.

# A tibble: 70 x 3
# Groups:   playerID [70]
   playerID  `2014` `2015`
   <chr>      <dbl>  <dbl>
 1 abreujo02  0.317  0.290
 2 altuvjo01  0.341  0.313
 3 andruel01  0.263  0.258
 4 aybarer01  0.278  0.270
 5 bautijo02  0.286  0.250
 6 beltrad01  0.324  0.287
 7 blackch02  0.288  0.287
 8 bogaexa01  0.240  0.320
 9 brantmi02  0.327  0.310
10 braunry02  0.266  0.285
# … with 60 more rows
…
