Lecture 7: More About Regression
…
Notice that instead of computing the mean of the column “Success” from fg_test, we are computing the mean from fg_train.

Joining is a powerful technique to combine data from two different tables based on a key. The key is what enables us to match rows between the tables. For instance, to add the forecasts from “phat_kicker” to the tbl fg_test we can work row-by-row. First, for each field goal in fg_test, we identify the kicker who attempted the field goal. Then we can go over to the tbl phat_kicker and find the row corresponding to that kicker. We can then take that kicker’s forecast from phat_kicker and append it to the row in fg_test. What we have just described is what is known as an “inner join”. In this situation, the key was the Kicker. The code to carry out these operations is given below

> fg_test <-
+   fg_test %>%
+   inner_join(phat_kicker, by = "Kicker")

To verify that we have successfully performed this join, we can print out a few rows of fg_test:

> select(fg_test, Kicker, Success, phat_kicker)
# A tibble: 1,682 x 3
   Kicker  Success phat_kicker
   <chr>     <int>       <dbl>
 1 Akers         1       0.788
 2 Akers         1       0.788
 3 Bironas       1       0.850
 4 Bironas       1       0.850
 5 Bironas       1       0.850
 6 Brien         0       0.333
 7 Brown         0       0.829
 8 Brown         1       0.829
 9 Brown         1       0.829
10 Brown         1       0.829
# … with 1,672 more rows
…
