Module 3: Wrangling Data
…
The arrange() function works by taking a tbl and a set of column names and sorting the data according to the values in these columns.

> arrange(raw_shooting, FGA)
# A tibble: 7,447 x 11
   PLAYER      SEASON   FGM   FGA   TPM   TPA   FTM   FTA   FGP   TPP   FTP
   <chr>        <int> <int> <int> <int> <int> <int> <int> <dbl> <dbl> <dbl>
 1 Dajuan Wag…   2007     1     1     1     1     1     2 1         1   0.5
 2 Tyson Whee…   1999     1     1     1     1     1     2 1         1   0.5
 3 Alvin Will…   2007     0     2     0     1     2     4 0         0   0.5
 4 Donald Whi…   1998     1     2     0     1     0     2 0.5       0   0  
 5 Mustafa Sh…   2014     0     3     0     1     1     2 0         0   0.5
 6 John Lucas…   2011     1     3     0     1     0     2 0.333     0   0  
 7 Roger Powe…   2007     0     3     0     1     2     2 0         0   1  
 8 Alvin Will…   2006     0     3     0     2     1     2 0         0   0.5
 9 Rusty LaRue   2004     1     3     1     1     1     2 0.333     1   0.5
10 Dell Demps    1997     0     3     0     1     2     2 0         0   1  
# … with 7,437 more rows

We see now that there were two players who attempted only one field goal. We could instead sort the data according to FGA but in descending order, using desc():

> arrange(raw_shooting, desc(FGA))
# A tibble: 7,447 x 11
   PLAYER      SEASON   FGM   FGA   TPM   TPA   FTM   FTA   FGP   TPP   FTP
   <chr>        <int> <int> <int> <int> <int> <int> <int> <dbl> <dbl> <dbl>
 1 Kobe Bryant   2006   978  2173   180   518   696   819 0.450 0.347 0.850
 2 Allen Iver…   2003   804  1940    84   303   570   736 0.414 0.277 0.774
 3 Jerry Stac…   2001   774  1927   166   473   666   810 0.402 0.351 0.822
 4 Kobe Bryant   2003   868  1924   124   324   601   713 0.451 0.383 0.843
 5 Michael Jo…   1998   881  1893    30   126   565   721 0.465 0.238 0.784
 6 Michael Jo…   1997   920  1892   111   297   480   576 0.486 0.374 0.833
 7 LeBron Jam…   2006   875  1823   127   379   601   814 0.480 0.335 0.738
 8 Allen Iver…   2006   815  1822    72   223   675   829 0.447 0.323 0.814
 9 Allen Iver…   2005   771  1818   104   338   656   786 0.424 0.308 0.835
10 Tracy McGr…   2003   829  1813   173   448   576   726 0.457 0.386 0.793
# … with 7,437 more rows

When we specify more than one column, arrange() uses each additional column name to break ties in the values of preceding columns

> arrange(raw_shooting, FGA, TPA, FTA)
# A tibble: 7,447 x 11
   PLAYER      SEASON   FGM   FGA   TPM   TPA   FTM   FTA   FGP   TPP   FTP
   <chr>        <int> <int> <int> <int> <int> <int> <int> <dbl> <dbl> <dbl>
 1 Dajuan Wag…   2007     1     1     1     1     1     2 1         1   0.5
 2 Tyson Whee…   1999     1     1     1     1     1     2 1         1   0.5
 3 Donald Whi…   1998     1     2     0     1     0     2 0.5       0   0  
 4 Alvin Will…   2007     0     2     0     1     2     4 0         0   0.5
 5 Mustafa Sh…   2014     0     3     0     1     1     2 0         0   0.5
 6 John Lucas…   2011     1     3     0     1     0     2 0.333     0   0  
 7 Roger Powe…   2007     0     3     0     1     2     2 0         0   1  
 8 Rusty LaRue   2004     1     3     1     1     1     2 0.333     1   0.5
 9 Dell Demps    1997     0     3     0     1     2     2 0         0   1  
10 Alvin Will…   2006     0     3     0     2     1     2 0         0   0.5
# … with 7,437 more rows
…
To make such comparisons in R, we have the following operators available at our disposal:

== for “equal to”

!= for “not equal to”

< and <= for “less than” and “less than or equal to”

> and >= for “greater than” and “greater than or equal to”

&, |, ! for “AND” and “OR” and “NOT” The code below filter out all of the players with at least 100 field goals in a single season

> filter(raw_shooting, FGA > 100)
# A tibble: 6,295 x 11
   PLAYER      SEASON   FGM   FGA   TPM   TPA   FTM   FTA   FGP   TPP   FTP
   <chr>        <int> <int> <int> <int> <int> <int> <int> <dbl> <dbl> <dbl>
 1 Stephen Cu…   2016   805  1597   402   887   363   400 0.504 0.453 0.908
 2 James Hard…   2016   710  1617   236   657   720   837 0.439 0.359 0.860
 3 Kevin Dura…   2016   698  1381   186   480   447   498 0.505 0.388 0.898
 4 DeMarcus C…   2016   601  1332    70   210   476   663 0.451 0.333 0.718
 5 LeBron Jam…   2016   737  1416    87   282   359   491 0.520 0.309 0.731
 6 Damian Lil…   2016   618  1474   229   610   414   464 0.419 0.375 0.892
 7 Anthony Da…   2016   560  1137    35   108   326   430 0.493 0.324 0.758
 8 Russell We…   2016   656  1444   101   341   465   573 0.454 0.296 0.812
 9 DeMar DeRo…   2016   614  1377    47   139   555   653 0.446 0.338 0.850
10 Paul George   2016   605  1448   210   565   454   528 0.418 0.372 0.860
# … with 6,285 more rows

When we run this code, you’ll notice that R prints out a tbl with 6,385 rows. However, it has not removed the players with fewer than 100 field goals from the original tbl raw_shooting. In fact, dplyr functions never modify their input but work by creating a copy and modifying that. So if we wanted to be able to use the tbl consisting of just those players with a least 100 field goal attempts, we will need to save this modified copy of raw_shooting as a new tbl. Arranging this new tbl verifies that all observations contained in it have at least 100 field goals attempts.

> new_data <- filter(raw_shooting, FGA >= 100)
> arrange(new_data, FGA)
# A tibble: 6,306 x 11
   PLAYER      SEASON   FGM   FGA   TPM   TPA   FTM   FTA   FGP   TPP   FTP
   <chr>        <int> <int> <int> <int> <int> <int> <int> <dbl> <dbl> <dbl>
 1 Jordan Far…   2016    42   100    16    45    10    10  0.42 0.356 1    
 2 Jerry Stac…   2012    37   100    13    38    21    23  0.37 0.342 0.913
 3 Brian Card…   2011    43   100    42    87    17    18  0.43 0.483 0.944
 4 Kyrylo Fes…   2011    44   100     0     1    18    46  0.44 0     0.391
 5 Jonathan B…   2010    40   100    14    39    24    26  0.4  0.359 0.923
 6 Ryan Bowen    2008    49   100     0     1    16    29  0.49 0     0.552
 7 Richie Fra…   2006    39   100    23    70     7    10  0.39 0.329 0.7  
 8 Lindsey Hu…   2006    37   100    11    43     2     4  0.37 0.256 0.5  
 9 Oliver Mil…   2004    53   100     0     1    15    23  0.53 0     0.652
10 Mark Jacks…   2004    34   100     7    41    28    39  0.34 0.171 0.718
# … with 6,296 more rows

We can also filter on more complicated conditions constructed using the AND, OR, and NOT operators: &, |, and !. For instance, to filter observations with at least 100 field goal attempts OR 50 three point attempts, we would do

> filter(raw_shooting, FGA >= 100 | TPA >= 50)
# A tibble: 6,328 x 11
   PLAYER      SEASON   FGM   FGA   TPM   TPA   FTM   FTA   FGP   TPP   FTP
   <chr>        <int> <int> <int> <int> <int> <int> <int> <dbl> <dbl> <dbl>
 1 Stephen Cu…   2016   805  1597   402   887   363   400 0.504 0.453 0.908
 2 James Hard…   2016   710  1617   236   657   720   837 0.439 0.359 0.860
 3 Kevin Dura…   2016   698  1381   186   480   447   498 0.505 0.388 0.898
 4 DeMarcus C…   2016   601  1332    70   210   476   663 0.451 0.333 0.718
 5 LeBron Jam…   2016   737  1416    87   282   359   491 0.520 0.309 0.731
 6 Damian Lil…   2016   618  1474   229   610   414   464 0.419 0.375 0.892
 7 Anthony Da…   2016   560  1137    35   108   326   430 0.493 0.324 0.758
 8 Russell We…   2016   656  1444   101   341   465   573 0.454 0.296 0.812
 9 DeMar DeRo…   2016   614  1377    47   139   555   653 0.446 0.338 0.850
10 Paul George   2016   605  1448   210   565   454   528 0.418 0.372 0.860
# … with 6,318 more rows

We may combine these constraints by enclosing them in parantheses.

> filter(raw_shooting, (FGA >= 100 & TPA >= 50) | (FGP >= 0.45 & FGP <= 0.5))
# A tibble: 4,837 x 11
   PLAYER      SEASON   FGM   FGA   TPM   TPA   FTM   FTA   FGP   TPP   FTP
   <chr>        <int> <int> <int> <int> <int> <int> <int> <dbl> <dbl> <dbl>
 1 Stephen Cu…   2016   805  1597   402   887   363   400 0.504 0.453 0.908
 2 James Hard…   2016   710  1617   236   657   720   837 0.439 0.359 0.860
 3 Kevin Dura…   2016   698  1381   186   480   447   498 0.505 0.388 0.898
 4 DeMarcus C…   2016   601  1332    70   210   476   663 0.451 0.333 0.718
 5 LeBron Jam…   2016   737  1416    87   282   359   491 0.520 0.309 0.731
 6 Damian Lil…   2016   618  1474   229   610   414   464 0.419 0.375 0.892
 7 Anthony Da…   2016   560  1137    35   108   326   430 0.493 0.324 0.758
 8 Russell We…   2016   656  1444   101   341   465   573 0.454 0.296 0.812
 9 DeMar DeRo…   2016   614  1377    47   139   555   653 0.446 0.338 0.850
10 Paul George   2016   605  1448   210   565   454   528 0.418 0.372 0.860
# … with 4,827 more rows

What if we wanted to pull out the observations corresponding to the 2015-16 and 2014-15 season. We could do something like filter(raw_shooting, (SEASON == 2016) | (SEASON == 2015)), which would be perfectly fine. However, what if we wanted data from 1998-99, 2011-12, and 2015-16? Typing a lot of expressions like SEASON == ... would be rather tedious. The %in% operator lets us avoid this tedium:

> filter(raw_shooting, SEASON %in% c(1999, 2012, 2016))
# A tibble: 1,150 x 11
   PLAYER      SEASON   FGM   FGA   TPM   TPA   FTM   FTA   FGP   TPP   FTP
   <chr>        <int> <int> <int> <int> <int> <int> <int> <dbl> <dbl> <dbl>
 1 Stephen Cu…   2016   805  1597   402   887   363   400 0.504 0.453 0.908
 2 James Hard…   2016   710  1617   236   657   720   837 0.439 0.359 0.860
 3 Kevin Dura…   2016   698  1381   186   480   447   498 0.505 0.388 0.898
 4 DeMarcus C…   2016   601  1332    70   210   476   663 0.451 0.333 0.718
 5 LeBron Jam…   2016   737  1416    87   282   359   491 0.520 0.309 0.731
 6 Damian Lil…   2016   618  1474   229   610   414   464 0.419 0.375 0.892
 7 Anthony Da…   2016   560  1137    35   108   326   430 0.493 0.324 0.758
 8 Russell We…   2016   656  1444   101   341   465   573 0.454 0.296 0.812
 9 DeMar DeRo…   2016   614  1377    47   139   555   653 0.446 0.338 0.850
10 Paul George   2016   605  1448   210   565   454   528 0.418 0.372 0.860
# … with 1,140 more rows

We could also filter out data from the two lockout-shortened seasons, 1998-99 and 2011-12 using a combination of the NOT ! operator and %in%.

> filter(raw_shooting, !SEASON %in% c(1999, 2012))
# A tibble: 6,721 x 11
   PLAYER      SEASON   FGM   FGA   TPM   TPA   FTM   FTA   FGP   TPP   FTP
   <chr>        <int> <int> <int> <int> <int> <int> <int> <dbl> <dbl> <dbl>
 1 Stephen Cu…   2016   805  1597   402   887   363   400 0.504 0.453 0.908
 2 James Hard…   2016   710  1617   236   657   720   837 0.439 0.359 0.860
 3 Kevin Dura…   2016   698  1381   186   480   447   498 0.505 0.388 0.898
 4 DeMarcus C…   2016   601  1332    70   210   476   663 0.451 0.333 0.718
 5 LeBron Jam…   2016   737  1416    87   282   359   491 0.520 0.309 0.731
 6 Damian Lil…   2016   618  1474   229   610   414   464 0.419 0.375 0.892
 7 Anthony Da…   2016   560  1137    35   108   326   430 0.493 0.324 0.758
 8 Russell We…   2016   656  1444   101   341   465   573 0.454 0.296 0.812
 9 DeMar DeRo…   2016   614  1377    47   139   555   653 0.446 0.338 0.850
10 Paul George   2016   605  1448   210   565   454   528 0.418 0.372 0.860
# … with 6,711 more rows

For the remainder of this module, we will focus on the players who attempted at least 100 field goals, 100 free throws, 50 three pointers in the non-lockout seasons.

> nba_shooting_orig <- filter(raw_shooting, FGA >= 100 & FTA >= 100 & TPA >= 50 & 
+     !SEASON %in% c(1999, 2012))
> nba_shooting_orig
# A tibble: 2,254 x 11
   PLAYER      SEASON   FGM   FGA   TPM   TPA   FTM   FTA   FGP   TPP   FTP
   <chr>        <int> <int> <int> <int> <int> <int> <int> <dbl> <dbl> <dbl>
 1 Stephen Cu…   2016   805  1597   402   887   363   400 0.504 0.453 0.908
 2 James Hard…   2016   710  1617   236   657   720   837 0.439 0.359 0.860
 3 Kevin Dura…   2016   698  1381   186   480   447   498 0.505 0.388 0.898
 4 DeMarcus C…   2016   601  1332    70   210   476   663 0.451 0.333 0.718
 5 LeBron Jam…   2016   737  1416    87   282   359   491 0.520 0.309 0.731
 6 Damian Lil…   2016   618  1474   229   610   414   464 0.419 0.375 0.892
 7 Anthony Da…   2016   560  1137    35   108   326   430 0.493 0.324 0.758
 8 Russell We…   2016   656  1444   101   341   465   573 0.454 0.296 0.812
 9 DeMar DeRo…   2016   614  1377    47   139   555   653 0.446 0.338 0.850
10 Paul George   2016   605  1448   210   565   454   528 0.418 0.372 0.860
# … with 2,244 more rows

Creating New Variables from Old

In Module 1, we computed effective field goal percentage (eFGP), points scored (PTS), and true shooting percentage (TSP) from vectors containing the number of made and attempted field goals, three pointers, and free throws. Now that we have substantially more data stored in our tbl nba_shooting_orig, we would like to compute these statistics for all of the players and add new columns for them. We do this with mutate().

> mutate(nba_shooting_orig, eFGP = (FGM + 0.5 * TPM)/FGA)
# A tibble: 2,254 x 12
   PLAYER SEASON   FGM   FGA   TPM   TPA   FTM   FTA   FGP   TPP   FTP
   <chr>   <int> <int> <int> <int> <int> <int> <int> <dbl> <dbl> <dbl>
 1 Steph…   2016   805  1597   402   887   363   400 0.504 0.453 0.908
 2 James…   2016   710  1617   236   657   720   837 0.439 0.359 0.860
 3 Kevin…   2016   698  1381   186   480   447   498 0.505 0.388 0.898
 4 DeMar…   2016   601  1332    70   210   476   663 0.451 0.333 0.718
 5 LeBro…   2016   737  1416    87   282   359   491 0.520 0.309 0.731
 6 Damia…   2016   618  1474   229   610   414   464 0.419 0.375 0.892
 7 Antho…   2016   560  1137    35   108   326   430 0.493 0.324 0.758
 8 Russe…   2016   656  1444   101   341   465   573 0.454 0.296 0.812
 9 DeMar…   2016   614  1377    47   139   555   653 0.446 0.338 0.850
10 Paul …   2016   605  1448   210   565   454   528 0.418 0.372 0.860
# … with 2,244 more rows, and 1 more variable: eFGP <dbl>

When we run the code above, we find that R prints out a tbl whose very last column is eFGP. However, if we try to print out nba_shooting_orig we no longer see this column! This is because dplyr functions never modify their input but work by creating a copy and modifying that. So if we wanted a new tbl that contains eFGP, we need to save it directly:

> nba_shooting_2 <- mutate(nba_shooting_orig, eFGP = (FGM + 0.5 * TPM)/FGA)
> nba_shooting_2
# A tibble: 2,254 x 12
   PLAYER SEASON   FGM   FGA   TPM   TPA   FTM   FTA   FGP   TPP   FTP
   <chr>   <int> <int> <int> <int> <int> <int> <int> <dbl> <dbl> <dbl>
 1 Steph…   2016   805  1597   402   887   363   400 0.504 0.453 0.908
 2 James…   2016   710  1617   236   657   720   837 0.439 0.359 0.860
 3 Kevin…   2016   698  1381   186   480   447   498 0.505 0.388 0.898
 4 DeMar…   2016   601  1332    70   210   476   663 0.451 0.333 0.718
 5 LeBro…   2016   737  1416    87   282   359   491 0.520 0.309 0.731
 6 Damia…   2016   618  1474   229   610   414   464 0.419 0.375 0.892
 7 Antho…   2016   560  1137    35   108   326   430 0.493 0.324 0.758
 8 Russe…   2016   656  1444   101   341   465   573 0.454 0.296 0.812
 9 DeMar…   2016   614  1377    47   139   555   653 0.446 0.338 0.850
10 Paul …   2016   605  1448   210   565   454   528 0.418 0.372 0.860
# … with 2,244 more rows, and 1 more variable: eFGP <dbl>
…
Spread: sd(), IQR()

Range: min(), max()

Count: n(), n_distinct()

We will have much more to say about summarize() in Module 4 when we discuss grouped manipulations. 

Selecting Columns

Oftentimes, the dataset you load into R contains many, many more columns than you need. We can use select() to pull out the columns we want to use in our subsequent analyses. For instance, we may want to only focus on the columns SEASON, FGP, TPP, FTP, eFGP, PTS, and TSP and ignore the rest of the columns.

> select(nba_shooting, PLAYER, SEASON, FGP, TPP, FTP, eFGP, PTS, TSP)
# A tibble: 2,254 x 8
   PLAYER            SEASON   FGP   TPP   FTP  eFGP   PTS   TSP
   <chr>              <int> <dbl> <dbl> <dbl> <dbl> <dbl> <dbl>
 1 Stephen Curry       2016 0.504 0.453 0.908 0.630  2375 0.670
 2 James Harden        2016 0.439 0.359 0.860 0.512  2376 0.598
 3 Kevin Durant        2016 0.505 0.388 0.898 0.573  2029 0.634
 4 DeMarcus Cousins    2016 0.451 0.333 0.718 0.477  1748 0.538
 5 LeBron James        2016 0.520 0.309 0.731 0.551  1920 0.588
 6 Damian Lillard      2016 0.419 0.375 0.892 0.497  1879 0.560
 7 Anthony Davis       2016 0.493 0.324 0.758 0.508  1481 0.558
 8 Russell Westbrook   2016 0.454 0.296 0.812 0.489  1878 0.554
 9 DeMar DeRozan       2016 0.446 0.338 0.850 0.463  1830 0.550
10 Paul George         2016 0.418 0.372 0.860 0.490  1874 0.558
# … with 2,244 more rows
…
