Module 2: Tabular Data and Basic Plots
…
cols(
  PLAYER = col_character(),
  SEASON = col_integer(),
  FGM = col_integer(),
  FGA = col_integer(),
  TPM = col_integer(),
  TPA = col_integer(),
  FTM = col_integer(),
  FTA = col_integer(),
  FGP = col_double(),
  TPP = col_double(),
  FTP = col_double()
)
> nba_shooting
# A tibble: 7,447 x 11
   PLAYER      SEASON   FGM   FGA   TPM   TPA   FTM   FTA   FGP   TPP   FTP
   <chr>        <int> <int> <int> <int> <int> <int> <int> <dbl> <dbl> <dbl>
 1 Stephen Cu…   2016   805  1597   402   887   363   400 0.504 0.453 0.908
 2 James Hard…   2016   710  1617   236   657   720   837 0.439 0.359 0.860
 3 Kevin Dura…   2016   698  1381   186   480   447   498 0.505 0.388 0.898
 4 DeMarcus C…   2016   601  1332    70   210   476   663 0.451 0.333 0.718
 5 LeBron Jam…   2016   737  1416    87   282   359   491 0.520 0.309 0.731
 6 Damian Lil…   2016   618  1474   229   610   414   464 0.419 0.375 0.892
 7 Anthony Da…   2016   560  1137    35   108   326   430 0.493 0.324 0.758
 8 Russell We…   2016   656  1444   101   341   465   573 0.454 0.296 0.812
 9 DeMar DeRo…   2016   614  1377    47   139   555   653 0.446 0.338 0.850
10 Paul George   2016   605  1448   210   565   454   528 0.418 0.372 0.860
# … with 7,437 more rows
…
